…
Linear Regression with Gradient Descent

Solving a linear regression problem with Gradient Descent optimization algorithm to better understand learning…

1. Notations and Definitions

Assume the training set below: (a tibble in R)

library(dplyr)
as_tibble(cars)

## # A tibble: 50 x 2
##    speed  dist
##    <dbl> <dbl>
##  1     4     2
##  2     4    10
##  3     7     4
##  4     7    22
##  5     8    16
##  6     9    10
##  7    10    18
##  8    10    26
##  9    10    34
## 10    11    17
## # … with 40 more rows
…
